{
  "current": {
    "emailAddress": "support@jsdentallab.com",
    "addressTitle": "Our Dental Lab Address",
    "addressDescription": "JS Dental Lab<br>\n3423 Investment Blvd Suite 11<br>\nHayward, CA 94545",
    "social_twitter_link": "https:\/\/twitter.com\/jsdentallab",
    "social_facebook_link": "https:\/\/www.facebook.com\/jsdentallab\/",
    "social_instagram_link": "https:\/\/www.instagram.com\/jsdentallab\/",
    "favicon": "shopify:\/\/shop_images\/favicon_2x_5ed4f0df-73ee-4599-8027-128bd53b543b.png",
    "checkout_logo_image": "shopify:\/\/shop_images\/Screen_Shot_2021-07-24_at_12.00.00_PM.png",
    "checkout_logo_size": "small",
    "checkout_accent_color": "#f07826",
    "checkout_button_color": "#f07826",
    "sections": {
      "header": {
        "type": "header",
        "settings": {
          "logo": "shopify:\/\/shop_images\/JSDL-2021-logo_2x_afd1b460-4000-4624-85ef-ccc7a05b9c62.png",
          "nav_menu": "2-0-top-menu",
          "mobileBottomMenu": "2-0-mobile-bottom-menu",
          "articleList1": "news\/stress-and-bruxism-how-to-stop-teeth-grinding",
          "articleList2": "news\/night-guard-info-three-long-term-negative-effects-of-teeth-grinding",
          "show_announcement": true,
          "header_text": "Crafted in California - guaranteed to last at least one year or your money back!",
          "announcement_link": "shopify:\/\/collections",
          "announcement_link_text": ""
        }
      },
      "footer": {
        "type": "footer",
        "blocks": {
          "51cffea9-39f1-4dae-a37e-7e410e08c535": {
            "type": "link_list",
            "settings": {
              "menu": "2-0-footer-menu"
            }
          },
          "e5fb2ab7-965b-4597-8bfb-83abed4ce40d": {
            "type": "link_list",
            "settings": {
              "menu": "2-0-footer-menu-2"
            }
          },
          "f2c5f002-ff14-48db-90d8-46d9c01089e1": {
            "type": "link_list",
            "settings": {
              "menu": "2-0-footer-menu-3"
            }
          },
          "a891042a-69cc-4b1b-9360-2f50aa49b3ed": {
            "type": "newsletter",
            "settings": {
              "title": "Get The Latest",
              "newsletterDesc": "<p>Sign up and receive the latest tips and tricks on clenching, grinding and more<\/p>"
            }
          }
        },
        "block_order": [
          "51cffea9-39f1-4dae-a37e-7e410e08c535",
          "e5fb2ab7-965b-4597-8bfb-83abed4ce40d",
          "f2c5f002-ff14-48db-90d8-46d9c01089e1",
          "a891042a-69cc-4b1b-9360-2f50aa49b3ed"
        ],
        "settings": {}
      },
      "home_hero": {
        "type": "home_hero",
        "settings": {
          "backgroundImage": "shopify:\/\/shop_images\/night_guard_choices.jpg",
          "backgroundImageMobile": "shopify:\/\/shop_images\/night_guard_choices.jpg",
          "title": "Guard the night so you may seize the day!",
          "description": "Now you have a friend in the dental lab business.",
          "buttonText": "Shop Now",
          "buttonLink": "shopify:\/\/collections\/guards"
        }
      },
      "home_rating-slider": {
        "type": "home_rating-slider",
        "blocks": {
          "f876d7e9-bbc0-4a78-ad77-40ea2a717944": {
            "type": "ratings",
            "settings": {
              "ratings": 5,
              "title": "The night guard fits perfect! I'm a happy returning customer."
            }
          },
          "962adf40-b8b4-4254-83ed-3bf0d150aa1e": {
            "type": "ratings",
            "settings": {
              "ratings": 5,
              "title": "I got the day guard and the hybrid night guard. They fit perfectly! Very comfortable and so far seem durable. Ordering, molding, and shipping process was easy and efficient."
            }
          },
          "fee3770e-cd6e-4d7a-b432-72082b1b1b27": {
            "type": "ratings",
            "settings": {
              "ratings": 5,
              "title": "This is my second hybrid night guard from JS Dental. It was a no brainer ordering from them again, since my first one lasted 4 years!!"
            }
          },
          "3a1afd49-930c-4218-aa46-306fb3561508": {
            "type": "ratings",
            "settings": {
              "ratings": 5,
              "title": "I was hesitant to order a night guard online, but glad I did!"
            }
          }
        },
        "block_order": [
          "f876d7e9-bbc0-4a78-ad77-40ea2a717944",
          "962adf40-b8b4-4254-83ed-3bf0d150aa1e",
          "fee3770e-cd6e-4d7a-b432-72082b1b1b27",
          "3a1afd49-930c-4218-aa46-306fb3561508"
        ],
        "settings": {
          "buttonText": "Get Started Today",
          "buttonLink": "shopify:\/\/pages\/night-guard-quiz"
        }
      },
      "home_half-img-half-content-cta-solid-bg": {
        "type": "home_half-img-half-content-cta-solid-bg",
        "settings": {
          "backgroundImage": "shopify:\/\/shop_images\/jsdental-homepahe-quiz-desktop.png",
          "backgroundImageMobile": "shopify:\/\/shop_images\/jsdental-homepahe-quiz-desktop.png",
          "title": "Which Night Guard Is Right For Me?",
          "buttonText": "Take the quiz",
          "buttonLink": "shopify:\/\/pages\/night-guard-quiz",
          "buttonText2": "Shop Now",
          "buttonLink2": "shopify:\/\/collections\/guards",
          "lowerTitle": "Want to order a replacement guard?",
          "linkText": "Log In",
          "link": "https:\/\/jsdentallab.com\/account\/login?return_url=%2Faccount"
        }
      },
      "home_four-column-cta": {
        "type": "home_four-column-cta",
        "blocks": {
          "4c47cde6-354d-488b-9b11-89af8ac58778": {
            "type": "columns",
            "settings": {
              "title": "Free Impression Kit",
              "description": "<p>We'll mail you all the materials needed to make your own teeth impression. A comprehensive impression booklet is included in the kit as well.<\/p>",
              "icon": "shopify:\/\/shop_images\/icons-how-it-works-1-mail-kit_2x_1d1ba087-7ae2-4f8f-84ef-d8aa8e09e2d0.png"
            }
          },
          "9dbbf1e0-8a90-45fd-8247-a2bd2e7592cb": {
            "type": "columns",
            "settings": {
              "title": "Take Your Impression",
              "description": "<p>It is a 5-minute DIY process. You can contact us via email or SMS for impression quality check or tips before mailing it back to us.<\/p>",
              "icon": "shopify:\/\/shop_images\/icons-how-it-works-2-dental-impression_2x_d834a49a-b81b-4546-9ab5-21526524376e.png"
            }
          },
          "12e04bfb-4802-4a46-bea3-a9aa1ab2e609": {
            "type": "columns",
            "settings": {
              "title": "Mail Your Impression",
              "description": "<p>Use the prepaid mailer received in your kit to send your impression back to us.<\/p>",
              "icon": "shopify:\/\/shop_images\/icons-how-it-works-3-mail-back_2x_2183ceb3-42e3-44eb-ade0-2ada06e2f3a1.png"
            }
          },
          "35827229-fd96-4fdc-9838-5867cabf2a67": {
            "type": "columns",
            "settings": {
              "title": "Guard Your Night!",
              "description": "<p>Before you know it, your custom night guard will arrive at your doorstep! It is fabricated using a proven system that has helped thousands of customers sleep better.<\/p>",
              "icon": "shopify:\/\/shop_images\/icons-how-it-works-4-take-it-from-there_2x_ba39bb11-48fa-4088-b36d-6058a294d64e.png"
            }
          }
        },
        "block_order": [
          "4c47cde6-354d-488b-9b11-89af8ac58778",
          "9dbbf1e0-8a90-45fd-8247-a2bd2e7592cb",
          "12e04bfb-4802-4a46-bea3-a9aa1ab2e609",
          "35827229-fd96-4fdc-9838-5867cabf2a67"
        ],
        "settings": {
          "title": "How It Works",
          "titleBlue": "Four Simple Steps",
          "buttonText": "Help Me Choose",
          "buttonLink": "shopify:\/\/pages\/night-guard-quiz"
        }
      },
      "home_half-video-half-content": {
        "type": "home_half-video-half-content",
        "settings": {
          "image": "shopify:\/\/shop_images\/jsdental-homepage-video-thumb.jpg",
          "title": "We’re A Dental Lab First",
          "titleBlue": "The Difference",
          "wistiaLink": "<script src=\"https:\/\/fast.wistia.com\/embed\/medias\/b0qkoqyes8.jsonp\" async=\"\"><\/script>\n    <script src=\"https:\/\/fast.wistia.com\/assets\/external\/E-v1.js\" async=\"\"><\/script>\n    <div class=\"wistia_responsive_padding\" style=\"padding:56.25% 0 0 0;position:relative;\">\n      <div class=\"wistia_responsive_wrapper\" style=\"height:100%;left:0;position:absolute;top:0;width:100%;\">\n        <div class=\"wistia_embed wistia_async_b0qkoqyes8 videoFoam=true\" style=\"height:100%;position:relative;width:100%\">\n          <div class=\"wistia_swatch\" style=\"height:100%;left:0;opacity:0;overflow:hidden;position:absolute;top:0;transition:opacity 200ms;width:100%;\">\n            <img src=\"https:\/\/fast.wistia.com\/embed\/medias\/b0qkoqyes8\/swatch\" style=\"filter:blur(5px);height:100%;object-fit:contain;width:100%;\" alt=\"\" aria-hidden=\"true\" onload=\"this.parentNode.style.opacity=1;\">\n<\/div>\n        <\/div>\n      <\/div>\n    <\/div>",
          "description": "We didn't wake up one day and decided to disrupt something. We have been crafting dental products for over 20 years. If there is an issue, we'll find a way to fix it.",
          "buttonText": "Learn More",
          "buttonLink": "shopify:\/\/pages\/about-us"
        }
      },
      "home_four-column-testimonial": {
        "type": "home_four-column-testimonial",
        "blocks": {
          "dfe864df-c101-4c84-90fc-7a99fa576408": {
            "type": "testi",
            "settings": {
              "ratings": 5,
              "name": "Sarah H.",
              "title": "Awesome!",
              "description": "<p>I got the day guard and the hybrid night guard. They fit perfectly! Very comfortable and so far seem durable. Ordering, molding, and shipping process was easy and efficient. Highly recommend and will use in again in future. Also a quarter of the price compared to my local dentist!<\/p>",
              "image": "shopify:\/\/shop_images\/Sarah_Testimonial_JS_Dental_Lab.jpg"
            }
          },
          "2c243c74-645d-4579-86ab-e5d082c46939": {
            "type": "testi",
            "settings": {
              "ratings": 5,
              "name": "Sarah K.",
              "title": "Better then expected",
              "description": "<p>My current mouth guard is more than 6 years old &amp; gross in-spite of routine soaking in denture cleaner. I took a chance &amp; ordered 2 of the hard mouth guards. Anyone should be able to follow these easy directions, mix the impression material, &amp; take their own impression. I’m 77 years old &amp; I did it. I started counting when I began to fold the two colored impression materials together. They were well mixed when I got to 30. I quickly rolled the material into a log, placed it into the impression tray &amp; seated it firmly in my mouth by the time my count reached 45. I set my phone timer for 4 minutes&amp; removed the impression from my mouth by gently rocking it back &amp; forth a bit. After following the directions for returning the impression to the lab it was just a short wait for my new mouth guards to arrive. About five days wait. I am still quite amazed at how well the mouth guards fit, especially since the lab didn’t require a bite impression. This method is good value for the money, &amp; I recommend this process without hesitation.<\/p>",
              "image": "shopify:\/\/shop_images\/Sarah_Dental_lab.png"
            }
          },
          "604da58b-9454-4557-a4a4-807d90208e71": {
            "type": "testi",
            "settings": {
              "ratings": 5,
              "name": "Isabella K.",
              "title": "Fantastic product and service!",
              "description": "<p>This is my second hybrid night guard from JS Dental. It was a no brainer ordering from them again, since my first one lasted 4 years!! They were incredibly nice to offer the same discount code for reorders even though my mold is way too old and send me new sets of puddy to make a new mold for free. The new instructions they included are clear and easy to follow too. I’m so pleased with my new night guard. Thank you so much!<\/p>",
              "image": "shopify:\/\/shop_images\/Isabella_Testimonial_JS_Dental_Lab.jpg"
            }
          },
          "fea1cb9b-dff4-43d5-ad13-48d5b9498007": {
            "type": "testi",
            "settings": {
              "ratings": 5,
              "name": "Lydia E.",
              "title": "Day guard",
              "description": "<p>I&#x27;m a pretty intense clencher and have been using a durable night guard every night. Recently, I have noticed I&#x27;ve been clenching during the day so I decided to buy a day guard. It&#x27;s lighter and thinner than my night guard however still noticable when I wear it but doesn&#x27;t impede my speech too much. I choose to wear it at home during stressful times and it works very well. It&#x27;s a good fit and well made. I&#x27;m pleased with it and relieved I can give my teeth protection during the day also.<\/p>",
              "image": "shopify:\/\/shop_images\/Lydia_Testimonial_JS_Dental_Lab.jpg"
            }
          },
          "b52817be-9778-49ec-ac73-0b1281039b00": {
            "type": "testi",
            "settings": {
              "ratings": 5,
              "name": "Lisa A.",
              "title": "Rocked it!",
              "description": "<p>Great fit! Snug but easy to take off. Wish I had found\/knew about J&amp;S years ago. Thank you. I have already recommended you to friends and family. Great price for a quality product. Will be ordering a spare soon.<\/p>",
              "image": "shopify:\/\/shop_images\/Liza_Testimonial_JS_Dental_Lab.jpg"
            }
          },
          "85183152-9d63-438f-b480-ff5008d1e148": {
            "type": "testi",
            "settings": {
              "ratings": 5,
              "name": "Nzinga P.",
              "title": "Relief",
              "description": "<p>Money has been tight for myself (covid19). I suffer with a deep bite that causes me to clench my teeth. This leads erosion of enamel. I wore the removable Hayley Wire Retainers [which were designed to help with my uneven bite and rest my jaw muscles at night], until I misplaced them and couldn&#x27;t get them to fit. This was the most economical replacement. I ordered the lower guard in 3D and it is truly QUALITY. This is not the wimpy mouth guard you wear in sports. This fit perfectly and gave me much relief after several nights of consistent wear. I&#x27;ve ordered the top guard and can&#x27;t wait to get full relief. I&#x27;m very pleased and proud I found this company that gives quality dental results for a fraction of the cost. Filling out the correct formwork was confusing for me but their customer service reps were patient with me thru the process. They responded to all my emails and text messages within one business day. Thank you guys!<\/p>",
              "image": "shopify:\/\/shop_images\/Nzinga_Testimonial_JS_Dental_Lab.jpg"
            }
          },
          "9174524f-fad9-4be9-b74e-b87a58d93701": {
            "type": "testi",
            "settings": {
              "ratings": 5,
              "name": "kathi a.",
              "title": "Review",
              "description": "<p>LOVE it...I need another!!<\/p>",
              "image": "shopify:\/\/shop_images\/Kathi_Testimonial_JS_Dental_Lab.jpg"
            }
          },
          "eb02507b-65b9-4c95-858c-1615390ff703": {
            "type": "testi",
            "settings": {
              "ratings": 5,
              "name": "Brittany P.",
              "title": "High quality night guard & great service!",
              "description": "<p>The night guard fits perfect! I&#x27;m a happy returning customer. 👍<\/p>",
              "image": "shopify:\/\/shop_images\/Brittany_Testimonial_JS_Dental_Lab.jpg"
            }
          },
          "3cabda34-001f-4bd6-9d99-bde9408b22d8": {
            "type": "testi",
            "settings": {
              "ratings": 5,
              "name": "Roberta S.",
              "title": "My dentist approves!",
              "description": "<p>I was hesitant to order a night guard online, but glad I did! Making the impressions was easy - but make sure and read the instructions well before you begin. I ordered the 3D version (I have an overbite), and had to make an upper and lower impression. Both came out great the first time, and within a few weeks I had my new guard. It&#x27;s very comfortable... it is snug enough to stay in, but not uncomfortable. I just had an appointment with my dentist and showed him the guard, and he said it looked and fit great. Overall I am extremely pleased to have gotten this guard for hundreds less than at the dentist. Last but not least - this company responds to emails fast - like usually within a few hours. This made the experience even better.<\/p>",
              "image": "shopify:\/\/shop_images\/Roberta_Testimonial_JS_Dental_Lab.jpg"
            }
          },
          "8870da67-4512-41af-b8d2-a0d912e040cb": {
            "type": "testi",
            "settings": {
              "ratings": 5,
              "name": "Lani",
              "title": "Just what I need!",
              "description": "<p>My initial night guard didn&#x27;t fit properly and kept falling off as soon as I put it on. I reached out to Customer Service right away and they had me take a few photos of the impression (which they send back to you) and determined that because my gum line wasn&#x27;t clearly visable in the impression, that could explain the improper fit. They right away sent out a new impression kit with 2 different trays. About a week and a half later, I received my new guard. Fits perfect and it&#x27;s comfortable. I don&#x27;t usually sleep well with the store bought night guards because they&#x27;re bulky and uncomfortable. So glad I went through JS Dental and not my dentist, that wanted to charge me $400+. Very pleased and would definitely do business with them again.<\/p>",
              "image": "shopify:\/\/shop_images\/Lani_Testimonial_JS_Dental_Lab.jpg"
            }
          },
          "0401feee-0425-4c8d-8eb1-66d0c16fa6e8": {
            "type": "testi",
            "settings": {
              "ratings": 5,
              "name": "Toni D.",
              "title": "Never have a problem with the fit or quality.",
              "description": "<p>I always order my guards from you. Customer service is great too! I only wish you hadn’t stop selling the softer guards I used to buy.<\/p>",
              "image": "shopify:\/\/shop_images\/Toni_Testimonial_JS_Dental_Lab.jpg"
            }
          },
          "b588e16d-03e4-4be6-8a7d-ff7ac1b41214": {
            "type": "testi",
            "settings": {
              "ratings": 5,
              "name": "Frank I.",
              "title": "Great company and an amazing product",
              "description": "<p>Nothing to say but you’d be a fool to use another company. The price is right and the turnaround is perfect. Nuff said.<\/p>",
              "image": "shopify:\/\/shop_images\/Frank_Testimonial_JS_Dental_Lab.jpg"
            }
          },
          "68e72a6c-85f6-451c-a0fb-9a701b04db5c": {
            "type": "testi",
            "settings": {
              "ratings": 5,
              "name": "Eddy P.",
              "title": "Best guard I ever had!!!!!!!",
              "description": "<p>I was skeptical about purchasing a night guard online but it is so easy a cave man can do it. Instructions are super easy. I messed up my mold and they still made a perfect match. I will definitely buy it again when it’s time to replace it. The guard I got at my dentist cost $540. You do the math. Thank you JS Dental Lab.<\/p>",
              "image": "shopify:\/\/shop_images\/Eddy_Testimonial_JS_Dental_Lab.jpg"
            }
          },
          "9269822e-4333-4f69-97f0-bfc13b1ed9ca": {
            "type": "testi",
            "settings": {
              "ratings": 5,
              "name": "Tim K.",
              "title": "very good service",
              "description": "<p>5\/5 cost effective Very patiently Process is optimized for return and adjustments Recommend if you need a guard. Tim<\/p>",
              "image": "shopify:\/\/shop_images\/Tim_Testimonial_JS_Dental_Lab.jpg"
            }
          },
          "7338e17b-1ec4-4fe9-b6b7-5f75b8706cd5": {
            "type": "testi",
            "settings": {
              "ratings": 5,
              "name": "Emmanuel O.",
              "title": "Exceptional customer service!!!",
              "description": "<p>Sarah has been excellent! I really appreciate her being patients with me. She really took her time In getting to know what I needed. I am really grateful to be dealing with her. The product is really great. I highly recommend purchasing from JS Dental Lab. Thank you, Emmanuel Orozco<\/p>",
              "image": "shopify:\/\/shop_images\/Emmanuel_Testimonial_JS_Dental_Lab.jpg"
            }
          },
          "175b5f75-c623-41cd-a84e-2a10ac02d41a": {
            "type": "testi",
            "settings": {
              "ratings": 5,
              "name": "Paul M.",
              "title": "Great Service!",
              "description": "<p>I appreciate the world class service that they provided. The staff are so nice. I ordered the top and bottom night guard. I&#x27;m highly satisfied as a repeat customer. Thank you JS Dental Lab;) A+!!!!!!<\/p>",
              "image": "shopify:\/\/shop_images\/Paul_Testimonial_JS_Dental_Lab.jpg"
            }
          },
          "3a90da58-e473-4e26-b99e-7e6f84aa8784": {
            "type": "testi",
            "settings": {
              "ratings": 5,
              "name": "Brian H.",
              "title": "Excellent product and even better customer service!!",
              "description": "<p>I am SUPER happy with the night guards I have ordered from JS Dental Lab!! I have now ordered 3 of there hybrid night guards and all 3 have arrived perfect and timely (even during the pandemic)! They are better than the one I got from my local dentist and cost almost pennies on the dollar compared. Even better is whenever I have emailed them, I always get a response within 24hrs (Thank you Leiha). I couldn&#x27;t be more satisfied. Thank you<\/p>",
              "image": "shopify:\/\/shop_images\/Brian_Testimonial_JS_Dental_Lab.jpg"
            }
          },
          "dfbc74bf-f2c4-4c83-b9e6-03a624f9b2d4": {
            "type": "testi",
            "settings": {
              "ratings": 5,
              "name": "John L.",
              "title": "Amazing!",
              "description": "<p>I purchased the 3D hard guard and, at first, it was a little tight (and annoying) around my molars. After a few days, it fit perfectly. I had such bad jaw pain due to TMJ prior to buying this guard and now the pain has disappeared and I’m sleeping so much better. My only regret is that I didn’t do this long ago. Thank you!<\/p>",
              "image": "shopify:\/\/shop_images\/John_Testimonial_JS_Dental_Lab.jpg"
            }
          },
          "5cc431cb-c331-4505-8af4-2ff64ced81c7": {
            "type": "testi",
            "settings": {
              "ratings": 0,
              "name": "Toni D.",
              "title": "Night guards",
              "description": "<p>I’ve always had great experiences with JS Dental Lab. I’ve never had a problem with any I’ve ordered, and I’ve ordered a good number of them. Great prompt service and great product!<\/p>",
              "image": "shopify:\/\/shop_images\/Toni_D_Testimonial_JS_Dental_lab.jpg"
            }
          },
          "60618a04-d171-4d39-a666-b3fc6c54f1f0": {
            "type": "testi",
            "settings": {
              "ratings": 0,
              "name": "Yuri G.",
              "title": "Upper night guard",
              "description": "<p>That is my first time order of night guard. I don&#x27;t have previous experience to compared with. My dentist is offered upper teeth night guard for 650.00 and trying to stay budget I choose JS Dental Lab. Very fast service and my night guard is perfectly feet makes my sleep very comfortable. If I need it again I know where to go. Thanks<\/p>",
              "image": "shopify:\/\/shop_images\/Yuri_Testimonial_JS_Dental_lab.jpg"
            }
          }
        },
        "block_order": [
          "dfe864df-c101-4c84-90fc-7a99fa576408",
          "2c243c74-645d-4579-86ab-e5d082c46939",
          "604da58b-9454-4557-a4a4-807d90208e71",
          "fea1cb9b-dff4-43d5-ad13-48d5b9498007",
          "b52817be-9778-49ec-ac73-0b1281039b00",
          "85183152-9d63-438f-b480-ff5008d1e148",
          "9174524f-fad9-4be9-b74e-b87a58d93701",
          "eb02507b-65b9-4c95-858c-1615390ff703",
          "3cabda34-001f-4bd6-9d99-bde9408b22d8",
          "8870da67-4512-41af-b8d2-a0d912e040cb",
          "0401feee-0425-4c8d-8eb1-66d0c16fa6e8",
          "b588e16d-03e4-4be6-8a7d-ff7ac1b41214",
          "68e72a6c-85f6-451c-a0fb-9a701b04db5c",
          "9269822e-4333-4f69-97f0-bfc13b1ed9ca",
          "7338e17b-1ec4-4fe9-b6b7-5f75b8706cd5",
          "175b5f75-c623-41cd-a84e-2a10ac02d41a",
          "3a90da58-e473-4e26-b99e-7e6f84aa8784",
          "dfbc74bf-f2c4-4c83-b9e6-03a624f9b2d4",
          "5cc431cb-c331-4505-8af4-2ff64ced81c7",
          "60618a04-d171-4d39-a666-b3fc6c54f1f0"
        ],
        "settings": {
          "title": "See What Our Customers Are Saying",
          "titleBlue": "Results",
          "buttonText": "Why Choose JS Dental",
          "buttonLink": "shopify:\/\/pages\/why-us"
        }
      },
      "home_full-width-content-img-cta": {
        "type": "home_full-width-content-img-cta",
        "settings": {
          "title": "Get The Rest You Need",
          "description": "<p>Order your durable, customized night guard today and take the night back.<\/p>",
          "buttonText": "Shop All Products",
          "buttonLink": "shopify:\/\/collections\/guards",
          "image": "shopify:\/\/shop_images\/jsdental-homepage-cta.jpg"
        }
      },
      "404": {
        "type": "404",
        "settings": {
          "backgroundImage": "shopify:\/\/shop_images\/404.jpg",
          "title": "404 PAGE",
          "description": "Whoops! Looks like someone is sleeping on the job",
          "buttonText": "Back Home"
        }
      },
      "why-us_inner-page-banner": {
        "type": "why-us_inner-page-banner",
        "settings": {
          "backgroundImage": "shopify:\/\/shop_images\/why-us-banner.png",
          "backgroundImageMobile": "shopify:\/\/shop_images\/why-us-img-7.jpg",
          "title": "8 Reasons To Choose JS Dental Lab Custom Night Guard",
          "description": ""
        }
      },
      "why-us_half-img-half-content-cta": {
        "type": "why-us_half-img-half-content-cta",
        "blocks": {
          "156ff78a-4660-4436-b996-34b30c29781f": {
            "type": "sections",
            "settings": {
              "position": "left",
              "iamgeStyle": "contain",
              "title": "Dentist quality product without the high price tag and dental visits",
              "description": "<p>The price of a dental office custom night guard can run up to $700. That is because this price has to cover both the dental office and the dental lab that makes the night guard. <\/p><p><br>With us, you’re going directly to the professional dental lab! That saves you money and offers you the convenience of doing everything from the comfort of your home.<br\/><\/p>",
              "sectionImage": "shopify:\/\/shop_images\/why-us-img-1-2.png"
            }
          },
          "13e123c5-e116-46dc-bdd2-39753261c9e2": {
            "type": "sections",
            "settings": {
              "position": "right",
              "iamgeStyle": "contain",
              "title": "Save money in the long run",
              "description": "<p>Boil & Bite products from the store will last only for a few days to a few weeks before you’d need to buy another.<\/p><p><br>Your JS Dental Lab custom guard can easily last between one to five years—sometimes even longer.<\/p>",
              "sectionImage": "shopify:\/\/shop_images\/why-us-img-2-2.png"
            }
          },
          "8a443a71-8b37-42b7-9ff0-db757069d7d9": {
            "type": "sections",
            "settings": {
              "position": "left",
              "iamgeStyle": "contain",
              "title": "So comfortable you'll want to wear it all night",
              "description": "<p>We design your night guard to not only last, but also to be extremely comfortable for you. <\/p><p>Your night guard won’t feel bulky, and it won’t feel flimsy. It will feel just right!<br\/><\/p>",
              "sectionImage": "shopify:\/\/shop_images\/3-D_Lower2.png"
            }
          },
          "f230da2a-8375-40e6-9d6f-b18d7f167a1c": {
            "type": "sections",
            "settings": {
              "position": "right",
              "iamgeStyle": "contain",
              "title": "The #1 selling Custom Night Guard brand on Amazon",
              "description": "<p>Our JS Dental Lab Night Guards have earned the best customer reviews and ratings on Amazon. Hands down. Why is that important? While some companies might pick which reviews to feature on their websites, reviews that appear on Amazon.com cannot be edited or altered. They are the real deal. And we wouldn’t want to change a thing.  All of our customers’ opinions motivate and inspire us to keep “shooting for the stars.”<\/p><p><br\/><\/p>",
              "sectionImage": "shopify:\/\/shop_images\/why-us-img-4.png"
            }
          },
          "40e9388f-38c9-425c-b5b1-136a95122e3d": {
            "type": "sections",
            "settings": {
              "position": "left",
              "iamgeStyle": "contain",
              "title": "Customer Satisfaction is our #1 Objective",
              "description": "<p>My name is Dylan, the founder of JS Dental Lab. If you are not getting the communication you need from our customer service team, email me directly at dylan@jsdentallab.com<\/p>",
              "sectionImage": "shopify:\/\/shop_images\/nightguard-lady_2x_604b13d9-cda9-4b9d-a592-91386e30c975.png"
            }
          },
          "5c3ed2ef-31a6-4385-bf93-e7c92cb8db00": {
            "type": "sections",
            "settings": {
              "position": "right",
              "iamgeStyle": "contain",
              "title": "100% Satisfaction or your money back",
              "description": "<p>Satisfying each customer is our team sport.  If you are not happy with your product, we'll issue a refund, and there’s no expiration date on that.  Heck--we’ll even offer you free adjustments and replacements until you are happy. C’mon. Try us. We train for this!<br\/><\/p>",
              "sectionImage": "shopify:\/\/shop_images\/JSDental--16.jpg"
            }
          },
          "e4dcebee-efe0-4cd5-bacf-2a9577c5fe93": {
            "type": "sections",
            "settings": {
              "position": "left",
              "iamgeStyle": "cover",
              "title": "Ultimate custimazation and choice",
              "description": "<p>One size never fits ALL. We know you’re unique. Mouths are most especially unique! We’re experts on that! <\/p><p><br\/>Our five night guard designs offer customized solutions for the wide range of grinding\/clenching behaviors and personal preferences. You're bound to find yours!<br\/><\/p>",
              "sectionImage": "shopify:\/\/shop_images\/Depositphotos_241195118_l-2015_fab889c7-5a14-49fd-b086-0b9ae297577e.jpg"
            }
          },
          "2e6aa409-7ecf-4bd6-be31-a5258f0f3998": {
            "type": "sections",
            "settings": {
              "position": "right",
              "iamgeStyle": "contain",
              "title": "Practice makes perfect",
              "description": "<p>Having made thousands of night guards and achieved over 90% five star ratings, we've seen close to all the issues someone can have with a night guard. So you can rest assured and confident that no matter what night guard issues you may need to solve--we’ve got solutions and suggestions to help. We’re experts. And we’re patient too.<\/p>",
              "sectionImage": "shopify:\/\/shop_images\/video-img.jpg"
            }
          }
        },
        "block_order": [
          "156ff78a-4660-4436-b996-34b30c29781f",
          "13e123c5-e116-46dc-bdd2-39753261c9e2",
          "8a443a71-8b37-42b7-9ff0-db757069d7d9",
          "f230da2a-8375-40e6-9d6f-b18d7f167a1c",
          "40e9388f-38c9-425c-b5b1-136a95122e3d",
          "5c3ed2ef-31a6-4385-bf93-e7c92cb8db00",
          "e4dcebee-efe0-4cd5-bacf-2a9577c5fe93",
          "2e6aa409-7ecf-4bd6-be31-a5258f0f3998"
        ],
        "settings": {}
      },
      "why-us_full-width-content-cta": {
        "type": "why-us_full-width-content-cta",
        "settings": {
          "title": "If you've made this far, you are ready to start this journey with us.",
          "buttonText": "Shop Now",
          "buttonLink": "shopify:\/\/collections\/guards"
        }
      },
      "how-it-works_half-img-half-content-cta": {
        "type": "how-it-works_half-img-half-content-cta",
        "blocks": {
          "82fe05ed-41c7-423e-8eb4-8e27bc49481b": {
            "type": "sections",
            "settings": {
              "position": "left",
              "subHeading": "Step 1",
              "title": "We Mail Your Kit",
              "description": "<p>First time buying a night guard? We’ve made the order process as quick and easy as possible. Your custom night guard will be in your hands in no time, making restless nights, morning headaches, and worn-down enamel a thing of the past.<\/p>",
              "note": "",
              "sectionImage": "shopify:\/\/shop_images\/JS_box-3.jpg",
              "buttonText": ""
            }
          },
          "10c2be2e-cbdb-4b68-a376-16d2495deaa7": {
            "type": "sections",
            "settings": {
              "position": "right",
              "subHeading": "Step 2",
              "title": "You Follow A Simple Process",
              "description": "<p>After you place your first order, we’ll mail your kit by the next working day. It contains everything needed to take an impression of your teeth. We’ll also send a prepaid, pre-addressed mailer—so you can send your impression back to us hassle-free as soon as you’re ready.<\/p>",
              "note": "",
              "sectionImage": "shopify:\/\/shop_images\/how-it-works-step-2.jpg",
              "buttonText": ""
            }
          },
          "ea4b3f85-52ac-4612-b8c2-96fa1d5b9175": {
            "type": "sections",
            "settings": {
              "position": "left",
              "subHeading": "Step 3",
              "title": "Pop Your Dental Impression In The Mail",
              "description": "<p>When you’re ready, use the prepaid mailer received in your kit to send your dental impression back to us. It’s already addressed—all you have to do is mail it.<\/p>",
              "note": "",
              "sectionImage": "shopify:\/\/shop_images\/3.jpg",
              "buttonText": ""
            }
          },
          "1abcb30f-c641-4b2b-b322-4ece84360f88": {
            "type": "sections",
            "settings": {
              "position": "right",
              "subHeading": "Step 4",
              "title": "We Take It From There!",
              "description": "<p>As soon as our lab receives your dental impression, our skilled technicians will set to work creating your night guard. We don’t like to keep you waiting—your guard will usually be ready to ship in its own protective case in 72 hours.<\/p>",
              "note": "*Due to COVID-19 related transit delays and our internal sanitization protocols, the turn-around days is currently 72 hours.",
              "sectionImage": "shopify:\/\/shop_images\/JSDentalLifestyle-9977.jpg",
              "buttonText": "Get Started",
              "buttonLink": "shopify:\/\/pages\/night-guard-quiz"
            }
          }
        },
        "block_order": [
          "82fe05ed-41c7-423e-8eb4-8e27bc49481b",
          "10c2be2e-cbdb-4b68-a376-16d2495deaa7",
          "ea4b3f85-52ac-4612-b8c2-96fa1d5b9175",
          "1abcb30f-c641-4b2b-b322-4ece84360f88"
        ],
        "settings": {}
      },
      "about-us_inner-page-banner": {
        "type": "about-us_inner-page-banner",
        "settings": {
          "backgroundImage": "shopify:\/\/shop_images\/about-us-banner.jpg",
          "backgroundImageMobile": "shopify:\/\/shop_images\/aboutus-hero-mobile.jpg",
          "title": "The Story Empowered By Our Customers",
          "description": "We didn't set out to disrupt an industry; we needed to figure out our way."
        }
      },
      "about-us_half-img-half-content": {
        "type": "about-us_half-img-half-content",
        "settings": {
          "image": "shopify:\/\/shop_images\/why-us-img-6.jpg",
          "title": "How We Got Started",
          "description": "<p><b>Inside JS Dental Lab<\/b>, each advanced lab tech is crafting a night guard for your most personal of times and spaces. Thanks to a good night’s sleep and refreshment, you can be ready to seize the new day!<\/p>\n\n<p>JSDL’s focus is on your good night’s sleep and better days that can come from the all-night relief and protection.<\/p>\n\n<p>For you: it’s your one-of-a-kind JS Dental Lab Night Guard, the ultimate ease for you to sink your teeth into!<\/p>\n\n<p><b>The beginnings<\/b> of JS Dental Lab's online business model came together not as the result of a brilliant idea to disrupt an industry, but someone's desperate need to figure out a career path!<\/p>\n\n<p>It was 2014. Hannah, a fashion design major graduate from Academy of Art, was lost in her career path.<\/p>\n\n<p>During this state of turmoil, Hannah learned during a dental checkup that she needed to use a night guard which was quoted to her for roughly $500.\n\n<\/p><p>She immediately thought of her father who happens to have run and owned a dental lab since 1999.<\/p>\n\n<p>\"Why not have my dad make it for me?\" She thought.\n\n<\/p><p><b>And so It Begins.<\/b><\/p>\n<p>With that first dental guard, Hannah realized she had come upon an extraordinary way to bring others the same high-level dental lab quality, comfort, and refreshing sleep! <\/p>\n<p><b>They’re In Business.<\/b><\/p>\n\n<p>In 2015, Dylan (Hannah's husband) decided to drop all his consulting projects because JSDL needed help and most importantly, he was compelled to do so by the number of five-star reviews and stories!<\/p>\n<p>Satisfying each customer became their driving force. More and more five-star reviews popped onto screens, telling many stories of the positive impact of JS Dental Lab Night Guards.<\/p>\n<p>In the rare case of an exception to the stellar reviews, the JSDL team would rally to make things right for the customer.<\/p>\n<p><b>The Force of Mission.<\/b><\/p>\n\n<p>Helping you increase your well-being also drives Dylan and Hannah in the way they had each been seeking in their careers. Through JS Dental Lab, its products and serving you, they’re living up to their greatest values and passions. Their instincts have met their purpose!<\/p>\n<p><b>It’s All About You.<\/b><\/p>\n<p>While the business happened to change the night guard marketplace in a meaningful way...that’s just been a bonus. The main point is what their products and service will mean for YOU.<\/p>\n<p>Through dental lab night guards, teeth whitening products, retainers, and new products to come, JS Dental Lab will continue to bring ease and wellness to your nights, your days  -- and your whole life.<\/p>\n\n<p><\/p><center>Hi there! <\/center>\n\n<p><\/p><center>Thank you for inviting us to touch your life. <\/center>\n<p><\/p><center>You are a gift to ours. <\/center>\n<p><\/p><center>The JS Dental Lab Family<\/center>"
        }
      },
      "about-us_three-column-grid": {
        "type": "about-us_three-column-grid",
        "settings": {
          "title": ""
        }
      },
      "blog-template": {
        "type": "blog-template",
        "settings": {
          "featured_article": "news\/everything-about-night-guards"
        }
      },
      "faq_accordion": {
        "type": "faq_accordion",
        "blocks": {
          "5fb8f43f-d5b2-474c-a8c6-0be5720a0053": {
            "type": "list",
            "settings": {
              "heading": "FAQs"
            }
          },
          "7d1093aa-c7fe-4f1f-9ac4-484c644e6c3a": {
            "type": "question",
            "settings": {
              "faqQuestion": "How to take my impression?",
              "faqanswer": "<p><a title=\"https:\/\/youtu.be\/dsfKKHdivRY\" href=\"https:\/\/youtu.be\/dsfKKHdivRY\" target=\"_blank\">Click here to watch a video<\/a><\/p>"
            }
          },
          "c04f8ffa-d409-4464-b168-7d05ca8e0957": {
            "type": "question",
            "settings": {
              "faqQuestion": "I'm getting new crowns soon. Should i wait to purchase a custom guard?",
              "faqanswer": "<p>We highly recommend that you wait! After having new crowns put on, your teeth need time to “settle”—and then your dentist can make any additional adjustments before you fit yourself for a custom night guard.<\/p>"
            }
          },
          "723ef06c-86cc-48a1-b182-31c64481f918": {
            "type": "question",
            "settings": {
              "faqQuestion": "Do your night guards work with dentures?",
              "faqanswer": "<p>Yes, you can wear our custom guards to protect dentures, implants, and natural teeth from grinding and clenching while you sleep.<\/p>"
            }
          },
          "097fcdc2-7229-4b4a-bf1b-ab7eada88a4c": {
            "type": "question",
            "settings": {
              "faqQuestion": "Do you accept insurance?",
              "faqanswer": "<p>Currently, J&amp;S Dental Lab does not work directly with any insurance companies. However, our night guards can help improve your overall health, reducing issues that may lead to mounting dental bills down the line and impede uninterrupted sleep. So, they are great investments!<\/p>"
            }
          },
          "cd403c66-6b9e-4d8c-b0be-723f06ffcab7": {
            "type": "question",
            "settings": {
              "faqQuestion": "Can i use your products with my retainer?",
              "faqanswer": "<p>Of course! Our custom guards work with both removable and bonded\/permanent retainers. Simply send an image of your retainer to support@jsdentallab.com and provide your order number, so we can ensure the proper fit. We also recommend consulting your dentist initially to see if wearing a night guard is right for you.<\/p>"
            }
          },
          "097aa4b0-d062-4112-91ea-234d45887169": {
            "type": "question",
            "settings": {
              "faqQuestion": "Do your night guards help treat sleep apnea?",
              "faqanswer": "<p>Our guards are not meant to treat sleep apnea. We design them to protect your teeth from the effects of nighttime grinding and clenching (bruxism).<\/p>"
            }
          },
          "adedfea1-2c2d-4082-8ffd-41f15efc0afc": {
            "type": "question",
            "settings": {
              "faqQuestion": "Do you have a return\/exchange\/refund policy?",
              "faqanswer": "<p>Absolutely. We offer free adjustments for a full year after your purchase. If adjustments don’t work, you can return your guard for a complete refund or exchange it for a different night guard.<\/p>"
            }
          },
          "5e4dfea2-efab-435f-8ae7-1f0f9f1951de": {
            "type": "question",
            "settings": {
              "faqQuestion": "What materials do you use to make your night guards?",
              "faqanswer": "<p>We make all of our night guards with premium dental use materials from the U.S. and Germany. They are latex, BPA, and Phthalate free.<\/p>"
            }
          },
          "34ebc075-b875-4042-adf4-cd7ec9ced751": {
            "type": "question",
            "settings": {
              "faqQuestion": "Should i get a night guard for the upper or lower part of my mouth?",
              "faqanswer": "<p>It’s up to you! For the best experience and results, choose a top or bottom guard based on which part of your mouth has the best teeth alignment. Ideally, you want to choose an area with no missing teeth and well-aligned.  And if you have a loose tooth, have it stabilized first before wearing a night guard to protect it from being further traumatized from grinding and clenching.<\/p>"
            }
          },
          "3480da50-4ee5-453a-a853-46a4c51b7a2d": {
            "type": "question",
            "settings": {
              "faqQuestion": "Do your night guards last longer than over-the-counter guards?",
              "faqanswer": "<p>Yes! You can expect your custom guard to last between one to five years—sometimes even longer. Durability depends on how severe your grinding and\/or clenching is, and how well you maintain your guard.<\/p><p>If your guard stops working sooner than expected, we’ll give you a partial refund, a friendly discount on a new guard, or a completely free replacement!<\/p>"
            }
          },
          "4ebfb42b-0772-4485-89c5-4b7b9d81cbbd": {
            "type": "question",
            "settings": {
              "faqQuestion": "Will you send a new impression kit if mine doesn't work the first time?",
              "faqanswer": "<p>Certainly. If your impression doesn’t come out right—or if the three tray sizes don’t fit your bite—just let us know and we’ll send another kit free of charge (with smaller or larger trays, if necessary). We also have tray sizes for children!<\/p><p>Having trouble creating an impression of your teeth? Use these helpful instructions to make the process hassle-free.<\/p>"
            }
          },
          "49d41356-dcac-4260-82ad-ebebfb869536": {
            "type": "question",
            "settings": {
              "faqQuestion": "I have an existing teeth mold from a non- J&S impression kit. Can you use that to create my custom guard?",
              "faqanswer": "<p>Sure! Even better—your existing mold makes you eligible for our repurchase discount, as long as the mold is still accurate and in usable condition.<\/p>"
            }
          },
          "366d8240-59a5-4dc5-bd0b-05d042a1d29e": {
            "type": "question",
            "settings": {
              "faqQuestion": "Are 3D guards different from your standard night guards?",
              "faqanswer": "<p>Yes, 3D guards use more comprehensive data collection to combat teeth occlusion—including overbites, underbites, crossbites, and other alignment issues.<\/p>"
            }
          },
          "14e56387-bf8a-4bca-ac7e-bda56acb8529": {
            "type": "question",
            "settings": {
              "faqQuestion": "How soon will i have my custom guard?",
              "faqanswer": "<p>Very soon! Typically, you’ll receive your custom night or day guard within 7 to 10 days of mailing us your finished teeth impression.<\/p>"
            }
          },
          "696c3f51-4b1b-4f5e-9c1e-7b0011bd7b26": {
            "type": "question",
            "settings": {
              "faqQuestion": "Can i use your guard as a teeth bleaching tray?",
              "faqanswer": "<p>Yes, but we don’t recommend it. For the best teeth bleaching results, use a custom-made bleaching tray. Our night guards feature a different design than trays made specifically for bleaching.<\/p>"
            }
          }
        },
        "block_order": [
          "5fb8f43f-d5b2-474c-a8c6-0be5720a0053",
          "7d1093aa-c7fe-4f1f-9ac4-484c644e6c3a",
          "c04f8ffa-d409-4464-b168-7d05ca8e0957",
          "723ef06c-86cc-48a1-b182-31c64481f918",
          "097fcdc2-7229-4b4a-bf1b-ab7eada88a4c",
          "cd403c66-6b9e-4d8c-b0be-723f06ffcab7",
          "097aa4b0-d062-4112-91ea-234d45887169",
          "adedfea1-2c2d-4082-8ffd-41f15efc0afc",
          "5e4dfea2-efab-435f-8ae7-1f0f9f1951de",
          "34ebc075-b875-4042-adf4-cd7ec9ced751",
          "3480da50-4ee5-453a-a853-46a4c51b7a2d",
          "4ebfb42b-0772-4485-89c5-4b7b9d81cbbd",
          "49d41356-dcac-4260-82ad-ebebfb869536",
          "366d8240-59a5-4dc5-bd0b-05d042a1d29e",
          "14e56387-bf8a-4bca-ac7e-bda56acb8529",
          "696c3f51-4b1b-4f5e-9c1e-7b0011bd7b26"
        ],
        "settings": {
          "title": ""
        }
      },
      "faq_full-width-content-cta-solid-bg": {
        "type": "faq_full-width-content-cta-solid-bg",
        "settings": {
          "title": "Have More Questions?",
          "buttonText": "Contact Us",
          "buttonLink": "shopify:\/\/pages\/contact-us"
        }
      },
      "sm-product-template": {
        "type": "sm-product-template",
        "settings": {
          "product_vendor_enable": false,
          "product_quantity_enable": false,
          "product_thumbnails_position": "right",
          "enable_payment_button": true,
          "insDescription": "<h2>Protect Against Loss, Damage, and More!<\/h2>\n<p>Our guards are built to last, but accidents do happen.<\/p>\n<p>For just $39.99\/year, you get: <\/p>\n<ol>\n<li>One free night guard replacement in a rolling 12 month period that covers any accidental loss or damage, night guard breakage, new dental work such as a filling or crown that requires a new guard to be made, and when your dog chews up your guard!<\/li>\n<li>Free adjustments until you are happy.<\/li>\n<li>Free exchange for a different type of guard that could suit your grinding\/clenching habit better.<\/li>\n<li>free two-way shipping for exchange, adjustment and replacement.<\/li>\n<\/ol>",
          "insImage": "shopify:\/\/shop_images\/why-us-img-6.jpg",
          "insVideoURL": ""
        }
      },
      "product-recommendations": {
        "type": "product-recommendations",
        "settings": {
          "show_product_recommendations": true,
          "heading": "You may also like",
          "show_vendor": false
        }
      },
      "sm-collection-template": {
        "type": "sm-collection-template",
        "settings": {
          "titleHeroBanner": "Durable, Customized Night Guards",
          "descriptionHeroBanner": "Save Smart, Sleep Better",
          "imageHeroBanner": "shopify:\/\/shop_images\/buy-night-guard-online.jpg",
          "rows": 2,
          "show_vendor": false,
          "sort_enable": true
        }
      },
      "article-template": {
        "type": "article-template",
        "settings": {
          "blog_show_author": true,
          "blog_show_date": true,
          "show_share_buttons": true,
          "newsletterTitle": "",
          "newsletterDesc": ""
        }
      },
      "repurchase_inner-page-banner": {
        "type": "repurchase_inner-page-banner",
        "settings": {
          "backgroundImage": "shopify:\/\/shop_images\/404.jpg",
          "backgroundImageMobile": "shopify:\/\/shop_images\/404.jpg",
          "title": "How Repurchase Works",
          "description": "Update: We upgraded our website recently. If you are a return customer and our website is telling you your account does not exist, please email us at support@jsdentallab.com and we'll send you an account re-activation link. Or you can simply register your account again. We apologize for the inconvenience! Please ask for a free night guard spray as our welcome back gift to you :)"
        }
      },
      "repurchase_half-img-half-content-cta": {
        "type": "repurchase_half-img-half-content-cta",
        "blocks": {
          "4ed7e3e2-e7bd-43fd-8a1c-856dd74fe8b3": {
            "type": "sections",
            "settings": {
              "position": "left",
              "iamgeStyle": "cover",
              "title": "Replacing an Old Guard is Necessary.",
              "description": "<p>Although we guarantee your guards will last you at least one year, you may decide to purchase a new one for various reasons. Some common ones are: lost guard, dog chewed the guard, guard is worn out, new dental work is done, family members need one, need a spare.<\/p>",
              "sectionImage": "shopify:\/\/shop_images\/jsdental-homepage-video-thumb.jpg"
            }
          },
          "ad6dfb98-d196-4197-9354-7b2da2b1001c": {
            "type": "sections",
            "settings": {
              "position": "right",
              "iamgeStyle": "contain",
              "title": "Save Up to 25% on Each Order",
              "description": "<p>We know bruxism is a source of stress that no one asks for, and do our best to help relieve it. <\/p><p>Save 15% on every repurchase or save 25% if you order two guards or more.<\/p>",
              "sectionImage": "shopify:\/\/shop_images\/trim_edges_no_BG.png"
            }
          },
          "73fd4264-2b3f-45cd-a16d-2e78c68794e2": {
            "type": "sections",
            "settings": {
              "position": "left",
              "iamgeStyle": "cover",
              "title": "Quick & Simple Reordering.",
              "description": "<p>Repurchasing is easy. If your first purchase was made through our website, you’ll already have an account with us. When you login again, all our products will automatically show the discounted price—just place your order. It’s as easy as that.<\/p><p>Register your account again if you purchased before March 2021 or contact us to get your old account activated.<\/p>",
              "sectionImage": "shopify:\/\/shop_images\/Depositphotos_241195118_l-2015_fab889c7-5a14-49fd-b086-0b9ae297577e.jpg"
            }
          },
          "b01a588f-51da-4cdb-95a6-2b1bf2db6e33": {
            "type": "sections",
            "settings": {
              "position": "right",
              "iamgeStyle": "contain",
              "title": "What If I Bought Through Amazon?",
              "description": "<p>If you found us through Amazon originally, don’t worry—you’re still eligible for repurchase discounts! Simply create an account on our website, log in, and you’ll have access to the discounted price!<\/p>",
              "sectionImage": "shopify:\/\/shop_images\/why-us-img-4.png"
            }
          },
          "f03f1f7f-73df-48bf-8da0-cbff5ca7ca94": {
            "type": "sections",
            "settings": {
              "position": "left",
              "iamgeStyle": "cover",
              "title": "No Secondary Impression Needed.",
              "description": "<p>You don’t even have to take another impression of your teeth. Simply return the impression and teeth model that you received for your first order, and we’ll do the rest. We’ll even email you a pre-paid label after you place your repurchase order on our website, so the cost of mailing is on us. If it makes your life easier, we’re happy to do it.<\/p>",
              "sectionImage": "shopify:\/\/shop_images\/how-it-works-step-4.jpg"
            }
          }
        },
        "block_order": [
          "4ed7e3e2-e7bd-43fd-8a1c-856dd74fe8b3",
          "ad6dfb98-d196-4197-9354-7b2da2b1001c",
          "73fd4264-2b3f-45cd-a16d-2e78c68794e2",
          "b01a588f-51da-4cdb-95a6-2b1bf2db6e33",
          "f03f1f7f-73df-48bf-8da0-cbff5ca7ca94"
        ],
        "settings": {}
      },
      "repurchase_full-width-content-cta": {
        "type": "repurchase_full-width-content-cta",
        "settings": {
          "title": "Need help with a repurchase? Contact Us. Our replies are lightening fast!",
          "buttonText": "Shop Now",
          "buttonLink": "shopify:\/\/collections\/guards"
        }
      },
      "product_four-column-cta": {
        "type": "product_four-column-cta",
        "blocks": {
          "209d54bb-e61d-499f-bcc9-ab976c9e65cb": {
            "type": "columns",
            "settings": {
              "title": "We Mail Your Kit",
              "description": "<p>First time buying a night guard? We’ve made the order process as quick and easy as possible. Your custom night guard will be in your hands in no time, making restless nights, morning headaches, and worn-down enamel a thing of the past.<\/p>",
              "icon": "shopify:\/\/shop_images\/1mail-kit_2x_8fc1fbce-b8e0-484c-81ea-9f036ce39cbf.png"
            }
          },
          "9b037d39-bc5f-41bb-b18a-f55616f9daed": {
            "type": "columns",
            "settings": {
              "title": "You Follow A Simple Process",
              "description": "<p>After you place your first order, we’ll mail your kit by the next working day. It contains everything needed to take an impression of your teeth. We’ll also send a prepaid, pre-addressed mailer—so you can send your impression back to us hassle-free as soon as you’re ready.<\/p>",
              "icon": "shopify:\/\/shop_images\/2dental-impression_2x_255fe543-b962-4471-9dc0-22ffb50a368d.png"
            }
          },
          "5f8283d7-9b97-41f6-9f34-4cb3c0c6d9aa": {
            "type": "columns",
            "settings": {
              "title": "Pop Your Dental Impression In The Mail",
              "description": "<p>When you’re ready, use the prepaid mailer received in your kit to send your dental impression back to us. It’s already addressed—all you have to do is mail it.<\/p>",
              "icon": "shopify:\/\/shop_images\/3mail-back_2x_9bf7e1c9-f617-4c79-ae5b-bced8c87a11f.png"
            }
          },
          "a2f7e1ea-5623-46b4-a02f-c382067b4463": {
            "type": "columns",
            "settings": {
              "title": "We Take It From There!",
              "description": "<p>As soon as our lab receives your dental impression, our skilled technicians will set to work creating your night guard. We don’t like to keep you waiting—your guard will usually be ready to ship in its own protective case within 24 hours.<\/p><p>*Due to COVID-19 related transit delays and our internal sanitization protocols, the turn-around days is currently 72 hours.<\/p>",
              "icon": "shopify:\/\/shop_images\/4take-it-from-there_2x_4272c0ed-064d-44d5-aefb-3a3a1467d43d.png"
            }
          }
        },
        "block_order": [
          "209d54bb-e61d-499f-bcc9-ab976c9e65cb",
          "9b037d39-bc5f-41bb-b18a-f55616f9daed",
          "5f8283d7-9b97-41f6-9f34-4cb3c0c6d9aa",
          "a2f7e1ea-5623-46b4-a02f-c382067b4463"
        ],
        "settings": {
          "title": "Four Simple Steps",
          "titleBlue": "How It Works",
          "buttonText": "",
          "buttonLink": ""
        }
      },
      "home_logo-slider": {
        "type": "home_logo-slider",
        "blocks": {
          "e3da9885-39ad-417c-a723-6f7310aa3ff0": {
            "type": "logo",
            "settings": {
              "title": "\"A Dream Come True For Tooth-Grinders\"",
              "image": "shopify:\/\/shop_images\/buzzfeed.png"
            }
          },
          "309e9714-904a-4519-9629-0eff10a784d6": {
            "type": "logo",
            "settings": {
              "title": "Best of the Best Award",
              "image": "shopify:\/\/shop_images\/bestreviews.png"
            }
          },
          "6bc54992-94d8-4a0d-b041-a7a2cdef9543": {
            "type": "logo",
            "settings": {
              "title": "\"Offers the fit and longevity you'd get from the dentist\"",
              "image": "shopify:\/\/shop_images\/chicago-tribune.png"
            }
          },
          "cd022577-d30b-4b23-aaf0-c413349bc479": {
            "type": "logo",
            "settings": {
              "title": "#1 Ranked Mouthgard",
              "image": "shopify:\/\/shop_images\/sleep-judge.png"
            }
          },
          "83c8b6bd-69dc-43ee-9e61-14bd0ae107eb": {
            "type": "logo",
            "settings": {
              "title": "Editor's Choice",
              "image": "shopify:\/\/shop_images\/talk-about-sleep_565f9eaf-e89d-41f4-ad2b-3952356dd7d6.png"
            }
          }
        },
        "block_order": [
          "e3da9885-39ad-417c-a723-6f7310aa3ff0",
          "309e9714-904a-4519-9629-0eff10a784d6",
          "6bc54992-94d8-4a0d-b041-a7a2cdef9543",
          "cd022577-d30b-4b23-aaf0-c413349bc479",
          "83c8b6bd-69dc-43ee-9e61-14bd0ae107eb"
        ],
        "settings": {}
      },
      "product-freetrial-template": {
        "type": "product-freetrial-template",
        "settings": {
          "product_vendor_enable": false,
          "product_free_trial_enable": true,
          "product_quantity_enable": false,
          "product_thumbnails_position": "right",
          "enable_payment_button": true,
          "insDescription": "",
          "insVideoURL": ""
        }
      }
    },
    "content_for_index": []
  }
}